…
## Results

Lets take a look at what we returned.

``` r
bevq.df %>%
  select(matches("_pd")) %>%
  skimr::skim()%>%
  dplyr::filter(stat == "mean") %>%
  select(variable, value)
```

    ## # A tibble: 72 x 2
    ##    variable        value
    ##    <chr>           <dbl>
    ##  1 par_bev_1_pd  2.94   
    ##  2 par_bev_2_pd  0.0630 
    ##  3 par_bev_3_pd  0.00840
    ##  4 par_bev_4_pd  0      
    ##  5 par_bev_5_pd  0.143  
    ##  6 par_bev_6_pd  0.189  
    ##  7 par_bev_7_pd  0.0756 
    ##  8 par_bev_8_pd  0.382  
    ##  9 par_bev_9_pd  0.0420 
    ## 10 par_bev_10_pd 0.685  
    ## # ... with 62 more rows

``` r
bevq.df %>%
  select(contains("_oz")) %>%
  skimr::skim()%>%
  dplyr::filter(stat == "mean") %>%
  select(variable, value)
```

    ## # A tibble: 36 x 2
    ##    variable         value
    ##    <chr>            <dbl>
    ##  1 par_bevamt_1_oz   15.5
    ##  2 par_bevamt_2_oz    7  
    ##  3 par_bevamt_3_oz    6  
    ##  4 par_bevamt_4_oz  NaN  
    ##  5 par_bevamt_5_oz    7.2
    ##  6 par_bevamt_6_oz    8  
    ##  7 par_bevamt_7_oz   12  
    ##  8 par_bevamt_8_oz   10.3
    ##  9 par_bevamt_9_oz   12  
    ## 10 par_bevamt_10_oz  10.5
    ## # ... with 26 more rows

``` r
bevq.df %>%
  select(contains("_bevtotal")) %>%
  skimr::skim() %>%
  dplyr::filter(stat == "mean") %>%
  select(variable, value)
```

    ## # A tibble: 38 x 2
    ##    variable          value
    ##    <chr>             <dbl>
    ##  1 par_bevtotal_1  46.4   
    ##  2 par_bevtotal_2   0.312 
    ##  3 par_bevtotal_3   0.0504
    ##  4 par_bevtotal_4   0     
    ##  5 par_bevtotal_5   0.902 
    ##  6 par_bevtotal_6   1.55  
    ##  7 par_bevtotal_7   0.214 
    ##  8 par_bevtotal_8   4.97  
    ##  9 par_bevtotal_9   0.504 
    ## 10 par_bevtotal_10  7.36  
    ## # ... with 28 more rows
…
