…
bevq.df<-bevq.df %>%
  rename_at(vars(ends_with("t2_pd_bi")), funs(sub("t2_pd_bi", "pd_bi_t2", .)))
```

## Results

Lets take a look at what we returned.

``` r
bevq.df %>%
  select(hhid, childid, child_bev_1, child_bev_1_pd, child_bevamt_1, child_bevamt_1_oz, child_bevtotal_1) %>%
  arrange(hhid)
```

    ## # A tibble: 114 x 7
    ##     hhid childid child_bev_1 child_bev_1_pd child_bevamt_1 child_bevamt_1_~
    ##    <dbl>   <dbl>   <dbl+lbl>          <dbl>      <dbl+lbl>            <dbl>
    ##  1 12001    2001 NA                      NA NA                           NA
    ##  2 12002    2002 NA                      NA NA                           NA
    ##  3 12003    2003 NA                      NA NA                           NA
    ##  4 12006    2006  7 [3+ tim~              3  4 [16 fl oz ~               16
    ##  5 12007    2007  1 [Never ~              0 NA                           NA
    ##  6 12008    2008  7 [3+ tim~              3  3 [12 fl oz ~               12
    ##  7 12009    2009  7 [3+ tim~              3  2 [8 fl oz (~                8
    ##  8 12010    2010  7 [3+ tim~              3  3 [12 fl oz ~               12
    ##  9 12011    2011  7 [3+ tim~              3  3 [12 fl oz ~               12
    ## 10 12012    2012  7 [3+ tim~              3  5 [More than~               20
    ## # ... with 104 more rows, and 1 more variable: child_bevtotal_1 <dbl>

``` r
bevq.df %>%
  select(contains("_pd")) %>%
  skimr::skim()%>%
  dplyr::filter(stat == "mean") %>%
  select(variable, value)
```

    ## # A tibble: 128 x 2
    ##    variable      value
    ##    <chr>         <dbl>
    ##  1 par_bev_1_pd  2.49 
    ##  2 par_bev_2_pd  0.367
    ##  3 par_bev_3_pd  0.364
    ##  4 par_bev_4_pd  0.161
    ##  5 par_bev_5_pd  0.119
    ##  6 par_bev_6_pd  0.140
    ##  7 par_bev_7_pd  0.217
    ##  8 par_bev_8_pd  0.469
    ##  9 par_bev_9_pd  0.306
    ## 10 par_bev_10_pd 0.362
    ## # ... with 118 more rows

``` r
bevq.df %>%
  select(contains("_oz")) %>%
  skimr::skim()%>%
  dplyr::filter(stat == "mean") %>%
  select(variable, value)
```

    ## # A tibble: 64 x 2
    ##    variable         value
    ##    <chr>            <dbl>
    ##  1 par_bevamt_1_oz  16.0 
    ##  2 par_bevamt_2_oz  12.2 
    ##  3 par_bevamt_3_oz  11.3 
    ##  4 par_bevamt_4_oz  11.2 
    ##  5 par_bevamt_5_oz   8.77
    ##  6 par_bevamt_6_oz  10   
    ##  7 par_bevamt_7_oz   9.18
    ##  8 par_bevamt_8_oz  13.6 
    ##  9 par_bevamt_9_oz  13.9 
    ## 10 par_bevamt_10_oz 12.2 
    ## # ... with 54 more rows

``` r
bevq.df %>%
  select(contains("_bevtotal")) %>%
  skimr::skim() %>%
  dplyr::filter(stat == "mean") %>%
  select(variable, value)
```

    ## # A tibble: 68 x 2
    ##    variable        value
    ##    <chr>           <dbl>
    ##  1 par_bevtotal_1  41.9 
    ##  2 par_bevtotal_2   4.32
    ##  3 par_bevtotal_3   4.48
    ##  4 par_bevtotal_4   1.53
    ##  5 par_bevtotal_5   1.06
    ##  6 par_bevtotal_6   1.54
    ##  7 par_bevtotal_7   2.27
    ##  8 par_bevtotal_8   6.62
    ##  9 par_bevtotal_9   4.65
    ## 10 par_bevtotal_10  4.22
    ## # ... with 58 more rows
…
